org\books\application\service\CustomerServiceIT.class
org\books\application\service\CatalogServiceIT$1.class
org\books\persistence\OrderTest.class
org\books\persistence\AbstractTest.class
org\books\persistence\CustomerTest.class
org\books\persistence\BookTest.class
org\books\application\service\CatalogServiceIT$4.class
org\books\application\service\OrderServiceIT.class
org\books\persistence\SalesOrderTest.class
org\books\application\service\CatalogServiceIT$3.class
org\books\application\service\CatalogServiceIT$2.class
org\books\persistence\UserTest.class
org\books\application\service\Common.class
org\books\application\service\CatalogServiceIT.class
