org\books\integration\amazon\generated\Price.class
org\books\integration\amazon\generated\SearchBinSets.class
org\books\integration\amazon\generated\NonNegativeIntegerWithUnits.class
org\books\integration\amazon\generated\CartAdd.class
org\books\persistence\enumeration\UserGroup.class
ch\bfh\eadj\pla\bookstore\order\OrderStatistic.class
org\books\integration\amazon\generated\OtherCategoriesSimilarProducts.class
org\books\application\service\OrderProcessor.class
org\books\integration\amazon\generated\CartModify.class
org\books\integration\amazon\generated\CartItem.class
org\books\application\dto\PurchaseOrder.class
org\books\application\exception\BookstoreException.class
org\books\integration\amazon\generated\CartAddRequest$Items$Item.class
org\books\persistence\entity\Address.class
org\books\integration\amazon\generated\AWSECommerceServicePortType.class
org\books\integration\amazon\generated\OfferListing.class
org\books\integration\amazon\generated\SimilarViewedProducts.class
org\books\integration\amazon\generated\CartCreateRequest$Items$Item$MetaData.class
org\books\integration\amazon\generated\CartAddResponse.class
org\books\integration\amazon\generated\Item.class
org\books\integration\amazon\generated\CartItems.class
org\books\integration\amazon\generated\CartClearResponse.class
org\books\integration\amazon\generated\Cart.class
org\books\integration\amazon\generated\Collections$Collection.class
org\books\integration\amazon\generated\Bin.class
org\books\integration\amazon\generated\SimilarityLookupResponse.class
org\books\integration\amazon\generated\BrowseNode$Properties.class
org\books\integration\amazon\generated\Errors$Error.class
org\books\integration\amazon\generated\Collections.class
org\books\integration\amazon\generated\ItemAttributes$UPCList.class
org\books\integration\amazon\generated\TopSellers$TopSeller.class
org\books\integration\amazon\generated\CartAddRequest$Items.class
org\books\integration\amazon\generated\CartCreateRequest.class
org\books\persistence\repository\BookRepository.class
org\books\integration\amazon\generated\ItemAttributes$EANList.class
org\books\integration\amazon\generated\Tracks$Disc.class
org\books\integration\amazon\generated\Errors.class
org\books\application\exception\CustomerNotFoundException.class
org\books\integration\amazon\generated\TopItemSet$TopItem.class
org\books\integration\amazon\generated\BrowseNodeLookupResponse.class
org\books\persistence\entity\Login_.class
org\books\integration\amazon\generated\BrowseNodeLookupRequest.class
org\books\application\exception\InvalidPasswordException.class
org\books\integration\amazon\generated\CartModifyRequest$Items.class
org\books\application\exception\OrderAlreadyShippedException.class
org\books\persistence\entity\BaseEntity_.class
org\books\integration\amazon\generated\Offer.class
org\books\persistence\entity\Login.class
org\books\integration\amazon\generated\BrowseNode$Ancestors.class
org\books\integration\amazon\generated\Collections$Collection$CollectionItem.class
org\books\integration\amazon\generated\ItemAttributes$Creator.class
org\books\integration\amazon\generated\RelatedItems.class
org\books\integration\amazon\generated\ItemSearchResponse.class
org\books\integration\amazon\generated\OfferSummary.class
org\books\integration\amazon\generated\CartModifyResponse.class
org\books\integration\amazon\generated\Items.class
org\books\persistence\dto\OrderInfo.class
org\books\integration\amazon\generated\Item$Subjects.class
org\books\integration\amazon\generated\CartClearRequest.class
org\books\integration\amazon\generated\OperationRequest.class
org\books\integration\amazon\generated\SimilarProducts.class
org\books\integration\amazon\generated\TopSellers.class
org\books\integration\amazon\generated\VariationAttribute.class
org\books\integration\amazon\generated\SecurityHelperDto.class
org\books\application\exception\BookNotFoundException.class
org\books\application\service\OrderService.class
org\books\application\interceptor\LogInterceptor.class
org\books\application\service\CustomerServiceBean.class
org\books\persistence\entity\Address_.class
org\books\integration\amazon\generated\NewReleases$NewRelease.class
org\books\integration\amazon\generated\ItemAttributes$CatalogNumberList.class
org\books\integration\amazon\generated\HTTPHeaders.class
org\books\integration\amazon\generated\AWSECommerceService.class
org\books\integration\amazon\generated\ItemAttributes$Languages$Language.class
org\books\integration\amazon\generated\ItemAttributes$Languages.class
org\books\application\exception\CustomerAlreadyExistsException.class
org\books\integration\amazon\generated\Promotion.class
org\books\integration\amazon\generated\ItemLink.class
org\books\integration\amazon\generated\CartItem$MetaData$KeyValuePair.class
org\books\integration\amazon\generated\ItemAttributes$ItemDimensions.class
org\books\persistence\entity\Book.class
org\books\integration\amazon\AmazonCatalog.class
org\books\persistence\enumeration\OrderStatus.class
org\books\integration\amazon\generated\Tracks.class
org\books\integration\amazon\generated\CartAddRequest.class
org\books\integration\amazon\generated\SearchBinSet.class
org\books\integration\amazon\generated\Promotion$Summary.class
org\books\persistence\entity\SalesOrder.class
org\books\integration\amazon\generated\Collections$Collection$CollectionParent.class
org\books\integration\amazon\generated\ItemAttributes$PackageDimensions.class
org\books\integration\amazon\generated\EditorialReview.class
org\books\integration\amazon\generated\VariationDimensions.class
org\books\integration\amazon\generated\Item$ImageSets.class
org\books\application\exception\OrderNotFoundException.class
org\books\integration\amazon\generated\Arguments.class
org\books\integration\amazon\generated\Bin$BinParameter.class
org\books\integration\amazon\generated\Offers.class
org\books\integration\amazon\generated\Accessories$Accessory.class
org\books\integration\amazon\generated\OtherCategoriesSimilarProducts$OtherCategoriesSimilarProduct.class
org\books\integration\amazon\generated\HTTPHeaders$Header.class
org\books\integration\amazon\generated\Variations.class
org\books\integration\amazon\generated\Image.class
org\books\integration\amazon\generated\Item$VariationAttributes.class
org\books\integration\amazon\generated\OfferListing$AvailabilityAttributes.class
org\books\integration\amazon\generated\BrowseNode$Children.class
org\books\integration\amazon\generated\Tracks$Disc$Track.class
org\books\persistence\entity\SalesOrder_.class
org\books\integration\amazon\generated\SearchResultsMap$SearchIndex.class
org\books\persistence\entity\Customer_.class
org\books\application\service\OrderServiceBean$1.class
org\books\integration\amazon\generated\Property.class
org\books\integration\amazon\generated\ItemAttributes.class
org\books\persistence\repository\Repository.class
org\books\persistence\entity\CreditCard.class
org\books\integration\amazon\generated\ItemLookupResponse.class
org\books\persistence\entity\SalesOrderItem_.class
org\books\integration\amazon\generated\EditorialReviews.class
org\books\integration\amazon\generated\StringWithUnits.class
org\books\persistence\entity\BaseEntity.class
org\books\integration\amazon\generated\CorrectedQuery.class
org\books\integration\amazon\generated\TopItemSet.class
org\books\persistence\entity\Customer.class
org\books\integration\amazon\generated\CartGetResponse.class
org\books\integration\amazon\generated\Item$AlternateVersions$AlternateVersion.class
org\books\integration\amazon\generated\LoyaltyPoints.class
org\books\integration\amazon\generated\SavedForLaterItems.class
org\books\application\service\MailBean.class
org\books\integration\amazon\generated\SimilarProducts$SimilarProduct.class
org\books\application\service\CatalogServiceBean.class
org\books\integration\amazon\generated\ItemSearch.class
org\books\integration\amazon\generated\CartGetRequest.class
org\books\integration\amazon\generated\SimilarViewedProducts$SimilarViewedProduct.class
org\books\integration\amazon\generated\Collections$Collection$CollectionSummary.class
org\books\persistence\entity\SalesOrderItem.class
org\books\integration\amazon\AmazonSecurityHelper.class
org\books\integration\amazon\generated\DecimalWithUnits.class
org\books\integration\amazon\generated\CartModifyRequest.class
org\books\integration\amazon\generated\ItemSearchRequest.class
org\books\persistence\repository\OrderRepository.class
org\books\application\dto\Registration.class
org\books\persistence\enumeration\BookBinding.class
org\books\integration\amazon\generated\CartCreateResponse.class
org\books\integration\amazon\generated\CartCreateRequest$Items.class
org\books\persistence\entity\Book_.class
org\books\integration\amazon\generated\SearchResultsMap.class
org\books\application\service\CustomerService.class
org\books\persistence\dto\CustomerInfo.class
org\books\integration\amazon\generated\CartCreateRequest$Items$Item.class
org\books\integration\amazon\generated\CartCreate.class
org\books\application\exception\PaymentFailedException$Code.class
org\books\integration\amazon\generated\Item$AlternateVersions.class
org\books\integration\amazon\generated\RelatedItem.class
org\books\integration\amazon\generated\ObjectFactory.class
org\books\integration\amazon\generated\Accessories.class
org\books\integration\amazon\generated\BrowseNodeLookup.class
org\books\integration\amazon\generated\ImageSet.class
org\books\persistence\repository\LoginRepository.class
org\books\persistence\repository\CustomerRepository.class
org\books\integration\amazon\generated\ItemLookupRequest.class
org\books\integration\amazon\generated\CartModifyRequest$Items$Item.class
org\books\integration\amazon\generated\BrowseNodes.class
org\books\integration\amazon\generated\CartItem$MetaData.class
org\books\application\exception\BookAlreadyExistsException.class
org\books\persistence\entity\CreditCard_.class
org\books\application\dto\PurchaseOrderItem.class
org\books\integration\amazon\generated\ItemLookup.class
org\books\application\exception\PaymentFailedException.class
org\books\integration\amazon\generated\SimilarityLookup.class
org\books\integration\amazon\generated\NewReleases.class
org\books\integration\amazon\generated\OfferAttributes.class
org\books\integration\amazon\generated\ItemLinks.class
org\books\integration\amazon\generated\package-info.class
org\books\integration\amazon\generated\Promotions.class
org\books\integration\amazon\generated\Request.class
org\books\persistence\enumeration\CreditCardType.class
org\books\integration\amazon\generated\Arguments$Argument.class
org\books\integration\amazon\generated\Merchant.class
org\books\integration\amazon\generated\CustomerReviews.class
org\books\application\service\CatalogService.class
org\books\integration\amazon\generated\CartClear.class
org\books\integration\amazon\generated\VariationSummary.class
org\books\application\service\OrderServiceBean.class
org\books\integration\amazon\generated\SimilarityLookupRequest.class
org\books\integration\amazon\generated\CartGet.class
org\books\integration\amazon\generated\BrowseNode.class
org\books\persistence\dto\BookInfo.class
